Old Introduction • FastRet
…
Welcome to this introduction vignette for FastRet. This tutorial will
show you how to use FastRet and what to pay attention to when using
it.

library(FastRet)

Before starting our analysis lets save some example data just as you
might have it laying around. The resulting excel file does need to have
three columns, RT, SMILES and NAME.

data(RP)
print(tibble::as_tibble(RP))
#> # A tibble: 442 × 3
#>       RT SMILES                                                    NAME         
#>    <dbl> <chr>                                                     <chr>        
#>  1  3.34 CCC(C(=O)O)O                                              2-HYDROXYBUT…
#>  2  3.35 COC1=C(C=CC(=C1)CCN)O                                     3-METHOXYTYR…
#>  3  2.11 C1=NC2=C(N1)C(=NC=N2)N                                    ADENINE      
#>  4  2.1  C1=NC2=C(C(=N1)N)N=CN2C3C(C(C(O3)COP(=O)(O)O)O)O          ADENOSINE 5'…
#>  5  3.13 C1C2C(C(C(O2)N3C=NC4=C3N=CN=C4N)O)OP(=O)(O1)O             ADENOSINE 3'…
#>  6  2.07 C1=NC2=C(C(=N1)N)N=CN2C3C(C(C(O3)COP(=O)(O)O)OP(=O)(O)O)O ADENOSINE 3'…
#>  7  1.22 [O-]C(=O)C[C@H](O)C[N+](C)(C)C                            L-CARNITINE  
#>  8  1.25 C[N+](C)(CCOP([O-])(OCC(O)CO)=O)C                         SN-GLYCERO-3…
#>  9  1.12 CN1C=C(N=C1)CC(C(=O)O)N                                   N(PAI)-METHY…
#> 10  1.21 C(CC(=O)O)CN                                              4-AMINOBUTAN…
#> # ℹ 432 more rows
…
